{
  "data": [
    {
      "questionId": 128,
      "questionTitle": "Data structures & Algorithms",
      "questionContent": "What should you learn first? Data Structure or Algorithms?...",
      "questionVoteCount": 49,
      "answer": 4,
      "tags": [
        {
          "tagId": 4,
          "tagName": "data-structures"
        },
        {
          "tagId": 5,
          "tagName": "algorithm"
        }
      ],
      "profileImage": "/images/profile.jpg",
      "nickName": "Ayman",
      "createdAt": "2023-06-15 12:20:14"
    },
    {
      "questionId": 127,
      "questionTitle": "Google OAuth-2.0 Refresh Token is Missing",
      "questionContent": "Problem: Missing OAuth 2 Refresh Token. The problem is that the localhost...",
      "questionVoteCount": 33,
      "answer": 0,
      "tags": [
        {
          "tagId": 10,
          "tagName": "oauth-2.0"
        },
        {
          "tagId": 11,
          "tagName": "google-auth"
        }
      ],
      "memberId": 161,
      "profileImage": "/images/profile.jpg",
      "nickName": "John Hanley",
      "createdAt": "2023-06-15 19:20:13"
    },
    {
      "questionId": 126,
      "questionTitle": "Data structures & Algorithms",
      "questionContent": "What should you learn first? Data Structure or Algorithms?...",
      "questionVoteCount": 49,
      "answer": 4,
      "tags": [
        {
          "tagId": 4,
          "tagName": "data-structures"
        },
        {
          "tagId": 5,
          "tagName": "algorithm"
        }
      ],
      "profileImage": "/images/profile.jpg",
      "nickName": "Ayman",
      "createdAt": "2023-06-15 12:20:14"
    },
    {
      "questionId": 125,
      "questionTitle": "Google OAuth-2.0 Refresh Token is Missing",
      "questionContent": "Problem: Missing OAuth 2 Refresh Token. The problem is that the localhost...",
      "questionVoteCount": 33,
      "answer": 0,
      "tags": [
        {
          "tagId": 10,
          "tagName": "oauth-2.0"
        },
        {
          "tagId": 11,
          "tagName": "google-auth"
        }
      ],
      "memberId": 161,
      "profileImage": "/images/profile.jpg",
      "nickName": "John Hanley",
      "createdAt": "2023-06-15 19:20:13"
    },
    {
      "questionId": 124,
      "questionTitle": "Data structures & Algorithms",
      "questionContent": "What should you learn first? Data Structure or Algorithms?...",
      "questionVoteCount": 49,
      "answer": 4,
      "tags": [
        {
          "tagId": 4,
          "tagName": "data-structures"
        },
        {
          "tagId": 5,
          "tagName": "algorithm"
        }
      ],
      "profileImage": "/images/profile.jpg",
      "nickName": "Ayman",
      "createdAt": "2023-06-15 12:20:14"
    },
    {
      "questionId": 123,
      "questionTitle": "Google OAuth-2.0 Refresh Token is Missing",
      "questionContent": "Problem: Missing OAuth 2 Refresh Token. The problem is that the localhost...",
      "questionVoteCount": 33,
      "answer": 0,
      "tags": [
        {
          "tagId": 10,
          "tagName": "oauth-2.0"
        },
        {
          "tagId": 11,
          "tagName": "google-auth"
        }
      ],
      "memberId": 161,
      "profileImage": "/images/profile.jpg",
      "nickName": "John Hanley",
      "createdAt": "2023-06-15 19:20:13"
    },
    {
      "questionId": 122,
      "questionTitle": "Data structures & Algorithms",
      "questionContent": "What should you learn first? Data Structure or Algorithms?...",
      "questionVoteCount": 49,
      "answer": 4,
      "tags": [
        {
          "tagId": 4,
          "tagName": "data-structures"
        },
        {
          "tagId": 5,
          "tagName": "algorithm"
        }
      ],
      "profileImage": "/images/profile.jpg",
      "nickName": "Ayman",
      "createdAt": "2023-06-15 12:20:14"
    },
    {
      "questionId": 121,
      "questionTitle": "Google OAuth-2.0 Refresh Token is Missing",
      "questionContent": "Problem: Missing OAuth 2 Refresh Token. The problem is that the localhost...",
      "questionVoteCount": 33,
      "answer": 0,
      "tags": [
        {
          "tagId": 10,
          "tagName": "oauth-2.0"
        },
        {
          "tagId": 11,
          "tagName": "google-auth"
        }
      ],
      "memberId": 161,
      "profileImage": "/images/profile.jpg",
      "nickName": "John Hanley",
      "createdAt": "2023-06-15 19:20:13"
    },
    {
      "questionId": 120,
      "questionTitle": "Data structures & Algorithms",
      "questionContent": "What should you learn first? Data Structure or Algorithms?...",
      "questionVoteCount": 49,
      "answer": 4,
      "tags": [
        {
          "tagId": 4,
          "tagName": "data-structures"
        },
        {
          "tagId": 5,
          "tagName": "algorithm"
        }
      ],
      "profileImage": "/images/profile.jpg",
      "nickName": "Ayman",
      "createdAt": "2023-06-15 12:20:14"
    },
    {
      "questionId": 119,
      "questionTitle": "Google OAuth-2.0 Refresh Token is Missing",
      "questionContent": "Problem: Missing OAuth 2 Refresh Token. The problem is that the localhost...",
      "questionVoteCount": 33,
      "answer": 0,
      "tags": [
        {
          "tagId": 10,
          "tagName": "oauth-2.0"
        },
        {
          "tagId": 11,
          "tagName": "google-auth"
        }
      ],
      "memberId": 161,
      "profileImage": "/images/profile.jpg",
      "nickName": "John Hanley",
      "createdAt": "2023-06-15 19:20:13"
    },
    {
      "questionId": 118,
      "questionTitle": "Data structures & Algorithms",
      "questionContent": "What should you learn first? Data Structure or Algorithms?...",
      "questionVoteCount": 49,
      "answer": 4,
      "tags": [
        {
          "tagId": 4,
          "tagName": "data-structures"
        },
        {
          "tagId": 5,
          "tagName": "algorithm"
        }
      ],
      "profileImage": "/images/profile.jpg",
      "nickName": "Ayman",
      "createdAt": "2023-06-15 12:20:14"
    },
    {
      "questionId": 117,
      "questionTitle": "Google OAuth-2.0 Refresh Token is Missing",
      "questionContent": "Problem: Missing OAuth 2 Refresh Token. The problem is that the localhost...",
      "questionVoteCount": 33,
      "answer": 0,
      "tags": [
        {
          "tagId": 10,
          "tagName": "oauth-2.0"
        },
        {
          "tagId": 11,
          "tagName": "google-auth"
        }
      ],
      "memberId": 161,
      "profileImage": "/images/profile.jpg",
      "nickName": "John Hanley",
      "createdAt": "2023-06-15 19:20:13"
    },
    {
      "questionId": 116,
      "questionTitle": "Data structures & Algorithms",
      "questionContent": "What should you learn first? Data Structure or Algorithms?...",
      "questionVoteCount": 49,
      "answer": 4,
      "tags": [
        {
          "tagId": 4,
          "tagName": "data-structures"
        },
        {
          "tagId": 5,
          "tagName": "algorithm"
        }
      ],
      "profileImage": "/images/profile.jpg",
      "nickName": "Ayman",
      "createdAt": "2023-06-15 12:20:14"
    },
    {
      "questionId": 115,
      "questionTitle": "Google OAuth-2.0 Refresh Token is Missing",
      "questionContent": "Problem: Missing OAuth 2 Refresh Token. The problem is that the localhost...",
      "questionVoteCount": 33,
      "answer": 0,
      "tags": [
        {
          "tagId": 10,
          "tagName": "oauth-2.0"
        },
        {
          "tagId": 11,
          "tagName": "google-auth"
        }
      ],
      "memberId": 161,
      "profileImage": "/images/profile.jpg",
      "nickName": "John Hanley",
      "createdAt": "2023-06-15 19:20:13"
    },
    {
      "questionId": 114,
      "questionTitle": "Data structures & Algorithms",
      "questionContent": "What should you learn first? Data Structure or Algorithms?...",
      "questionVoteCount": 49,
      "answer": 4,
      "tags": [
        {
          "tagId": 4,
          "tagName": "data-structures"
        },
        {
          "tagId": 5,
          "tagName": "algorithm"
        }
      ],
      "profileImage": "/images/profile.jpg",
      "nickName": "Ayman",
      "createdAt": "2023-06-15 12:20:14"
    },
    {
      "questionId": 113,
      "questionTitle": "Data structures & Algorithms",
      "questionContent": "What should you learn first? Data Structure or Algorithms?...",
      "questionVoteCount": 49,
      "answer": 4,
      "tags": [
        {
          "tagId": 4,
          "tagName": "data-structures"
        },
        {
          "tagId": 5,
          "tagName": "algorithm"
        }
      ],
      "profileImage": "/images/profile.jpg",
      "nickName": "Ayman",
      "createdAt": "2023-06-15 12:20:14"
    },
    {
      "questionId": 112,
      "questionTitle": "Google OAuth-2.0 Refresh Token is Missing",
      "questionContent": "Problem: Missing OAuth 2 Refresh Token. The problem is that the localhost...",
      "questionVoteCount": 33,
      "answer": 0,
      "tags": [
        {
          "tagId": 10,
          "tagName": "oauth-2.0"
        },
        {
          "tagId": 11,
          "tagName": "google-auth"
        }
      ],
      "memberId": 161,
      "profileImage": "/images/profile.jpg",
      "nickName": "John Hanley",
      "createdAt": "2023-06-15 19:20:13"
    },
    {
      "questionId": 111,
      "questionTitle": "Data structures & Algorithms",
      "questionContent": "What should you learn first? Data Structure or Algorithms?...",
      "questionVoteCount": 49,
      "answer": 4,
      "tags": [
        {
          "tagId": 4,
          "tagName": "data-structures"
        },
        {
          "tagId": 5,
          "tagName": "algorithm"
        }
      ],
      "profileImage": "/images/profile.jpg",
      "nickName": "Ayman",
      "createdAt": "2023-06-15 12:20:14"
    },
    {
      "questionId": 110,
      "questionTitle": "Google OAuth-2.0 Refresh Token is Missing",
      "questionContent": "Problem: Missing OAuth 2 Refresh Token. The problem is that the localhost...",
      "questionVoteCount": 33,
      "answer": 0,
      "tags": [
        {
          "tagId": 10,
          "tagName": "oauth-2.0"
        },
        {
          "tagId": 11,
          "tagName": "google-auth"
        }
      ],
      "memberId": 161,
      "profileImage": "/images/profile.jpg",
      "nickName": "John Hanley",
      "createdAt": "2023-06-15 19:20:13"
    },
    {
      "questionId": 109,
      "questionTitle": "Data structures & Algorithms",
      "questionContent": "What should you learn first? Data Structure or Algorithms?...",
      "questionVoteCount": 49,
      "answer": 4,
      "tags": [
        {
          "tagId": 4,
          "tagName": "data-structures"
        },
        {
          "tagId": 5,
          "tagName": "algorithm"
        }
      ],
      "profileImage": "/images/profile.jpg",
      "nickName": "Ayman",
      "createdAt": "2023-06-15 12:20:14"
    },
    {
      "questionId": 108,
      "questionTitle": "Google OAuth-2.0 Refresh Token is Missing",
      "questionContent": "Problem: Missing OAuth 2 Refresh Token. The problem is that the localhost...",
      "questionVoteCount": 33,
      "answer": 0,
      "tags": [
        {
          "tagId": 10,
          "tagName": "oauth-2.0"
        },
        {
          "tagId": 11,
          "tagName": "google-auth"
        }
      ],
      "memberId": 161,
      "profileImage": "/images/profile.jpg",
      "nickName": "John Hanley",
      "createdAt": "2023-06-15 19:20:13"
    },
    {
      "questionId": 107,
      "questionTitle": "Data structures & Algorithms",
      "questionContent": "What should you learn first? Data Structure or Algorithms?...",
      "questionVoteCount": 49,
      "answer": 4,
      "tags": [
        {
          "tagId": 4,
          "tagName": "data-structures"
        },
        {
          "tagId": 5,
          "tagName": "algorithm"
        }
      ],
      "profileImage": "/images/profile.jpg",
      "nickName": "Ayman",
      "createdAt": "2023-06-15 12:20:14"
    },
    {
      "questionId": 106,
      "questionTitle": "Google OAuth-2.0 Refresh Token is Missing",
      "questionContent": "Problem: Missing OAuth 2 Refresh Token. The problem is that the localhost...",
      "questionVoteCount": 33,
      "answer": 0,
      "tags": [
        {
          "tagId": 10,
          "tagName": "oauth-2.0"
        },
        {
          "tagId": 11,
          "tagName": "google-auth"
        }
      ],
      "memberId": 161,
      "profileImage": "/images/profile.jpg",
      "nickName": "John Hanley",
      "createdAt": "2023-06-15 19:20:13"
    },
    {
      "questionId": 105,
      "questionTitle": "Data structures & Algorithms",
      "questionContent": "What should you learn first? Data Structure or Algorithms?...",
      "questionVoteCount": 49,
      "answer": 4,
      "tags": [
        {
          "tagId": 4,
          "tagName": "data-structures"
        },
        {
          "tagId": 5,
          "tagName": "algorithm"
        }
      ],
      "profileImage": "/images/profile.jpg",
      "nickName": "Ayman",
      "createdAt": "2023-06-15 12:20:14"
    },
    {
      "questionId": 104,
      "questionTitle": "Google OAuth-2.0 Refresh Token is Missing",
      "questionContent": "Problem: Missing OAuth 2 Refresh Token. The problem is that the localhost...",
      "questionVoteCount": 33,
      "answer": 0,
      "tags": [
        {
          "tagId": 10,
          "tagName": "oauth-2.0"
        },
        {
          "tagId": 11,
          "tagName": "google-auth"
        }
      ],
      "memberId": 161,
      "profileImage": "/images/profile.jpg",
      "nickName": "John Hanley",
      "createdAt": "2023-06-15 19:20:13"
    },
    {
      "questionId": 103,
      "questionTitle": "Data structures & Algorithms",
      "questionContent": "What should you learn first? Data Structure or Algorithms?...",
      "questionVoteCount": 49,
      "answer": 4,
      "tags": [
        {
          "tagId": 4,
          "tagName": "data-structures"
        },
        {
          "tagId": 5,
          "tagName": "algorithm"
        }
      ],
      "profileImage": "/images/profile.jpg",
      "nickName": "Ayman",
      "createdAt": "2023-06-15 12:20:14"
    },
    {
      "questionId": 102,
      "questionTitle": "Google OAuth-2.0 Refresh Token is Missing",
      "questionContent": "Problem: Missing OAuth 2 Refresh Token. The problem is that the localhost...",
      "questionVoteCount": 33,
      "answer": 0,
      "tags": [
        {
          "tagId": 10,
          "tagName": "oauth-2.0"
        },
        {
          "tagId": 11,
          "tagName": "google-auth"
        }
      ],
      "memberId": 161,
      "profileImage": "/images/profile.jpg",
      "nickName": "John Hanley",
      "createdAt": "2023-06-15 19:20:13"
    },
    {
      "questionId": 101,
      "questionTitle": "Data structures & Algorithms",
      "questionContent": "What should you learn first? Data Structure or Algorithms?...",
      "questionVoteCount": 49,
      "answer": 4,
      "tags": [
        {
          "tagId": 4,
          "tagName": "data-structures"
        },
        {
          "tagId": 5,
          "tagName": "algorithm"
        }
      ],
      "profileImage": "/images/profile.jpg",
      "nickName": "Ayman",
      "createdAt": "2023-06-15 12:20:14"
    },
    {
      "questionId": 100,
      "questionTitle": "Google OAuth-2.0 Refresh Token is Missing",
      "questionContent": "Problem: Missing OAuth 2 Refresh Token. The problem is that the localhost...",
      "questionVoteCount": 33,
      "answer": 0,
      "tags": [
        {
          "tagId": 10,
          "tagName": "oauth-2.0"
        },
        {
          "tagId": 11,
          "tagName": "google-auth"
        }
      ],
      "memberId": 161,
      "profileImage": "/images/profile.jpg",
      "nickName": "John Hanley",
      "createdAt": "2023-06-15 19:20:13"
    },
    {
      "questionId": 99,
      "questionTitle": "Data structures & Algorithms",
      "questionContent": "What should you learn first? Data Structure or Algorithms?...",
      "questionVoteCount": 49,
      "answer": 4,
      "tags": [
        {
          "tagId": 4,
          "tagName": "data-structures"
        },
        {
          "tagId": 5,
          "tagName": "algorithm"
        }
      ],
      "profileImage": "/images/profile.jpg",
      "nickName": "asd",
      "createdAt": "2023-06-15 12:20:14"
    }
  ],
  "pageInfo": {
    "page": 1,
    "size": 15,
    "totalElements": 256,
    "totalPages": 18
  }
}
